R FOR DATA SCIENCE: SOLUTIONS TO CHAPTER THREE EXCERCISES
…
3.2.5 Exercises

Question 1

# Question 1: In a single pipeline for each condition, find all flights that meet the condition:

# Had an arrival delay of two or more hours
(arrival_delay_two_or_more_hours <-  flights_df |>
                                      filter(arr_delay >= 120) |> 
                                      select(flight)) 

# A tibble: 10,200 × 1
   flight
    <int>
 1   4576
 2   3944
 3    856
 4   1086
 5   4497
 6    525
 7   4181
 8   5712
 9   4092
10   4622
# ℹ 10,190 more rows

# Flew to Houston (IAH or HOU)
(flew_to_houston <- flights_df |>
                     filter(dest %in% c("IAH", "HOU"))  |> 
                     select(flight) )

# A tibble: 9,313 × 1
   flight
    <int>
 1   1545
 2   1714
 3    496
 4    473
 5   1479
 6   1220
 7   1004
 8    455
 9   1086
10   1461
# ℹ 9,303 more rows

# Were operated by United, American, or Delta
(operated_by_united_aa_delta <- flights_df |>
                                 filter(carrier %in% c("UA", "AA", "DL"))  |> 
                                 select(flight)) 

# A tibble: 139,504 × 1
   flight
    <int>
 1   1545
 2   1714
 3   1141
 4    461
 5   1696
 6    301
 7    194
 8   1124
 9    707
10   1187
# ℹ 139,494 more rows

# Departed in summer (July, August, and September)
(departed_in_summer <- flights_df |>
                        filter(month %in% c(7, 8, 9)) |> 
                        select(flight)) 

# A tibble: 86,326 × 1
   flight
    <int>
 1    915
 2   1503
 3    234
 4   1371
 5    185
 6    165
 7    415
 8    425
 9   1183
10    623
# ℹ 86,316 more rows

# Arrived more than two hours late but didn’t leave late
(arrived_2hrs_late_no_dep_delay <- flights_df |>
                                    filter(arr_delay > 120, dep_delay <= 0 ) |> 
                                    select(flight)) 

# A tibble: 29 × 1
   flight
    <int>
 1   3728
 2   5181
 3   1151
 4      3
 5    399
 6    389
 7   4540
 8    707
 9   2083
10   4674
# ℹ 19 more rows

# Were delayed by at least an hour, but made up over 30 minutes in flight
(delayed_1hr_madeup_30min <- flights_df |>
                              filter(dep_delay >= 60, dep_delay - arr_delay > 30 ) |> 
                              select(flight)) 

# A tibble: 1,844 × 1
   flight
    <int>
 1   1999
 2    199
 3    551
 4    575
 5    177
 6    979
 7     91
 8   3525
 9   3439
10    575
# ℹ 1,834 more rows
…
The variable will only appear once in the resulting dataframe, based on its original position in the dataset or as ordered in the select() call

Question 4: What does the any_of() function do? Why might it be helpful in conjunction with this vector?

variables <- c(“year”, “month”, “day”, “dep_delay”, “arr_delay”)

The any_of() function prevents your code from failing if some columns in the selection vector are missing from the dataset. Instead of throwing an error, it simply ignores the absent columns. This is particularly useful when working with datasets where you can’t guarantee the presence of all the columns in your selection.

Question 5: Does the result of running the following code surprise you? How do the select helpers deal with upper and lower case by default? How can you change that default?

flights_df |> select(contains("TImE"))

# A tibble: 336,776 × 6
   dep_time sched_dep_time arr_time sched_arr_time air_time time_hour          
      <int>          <int>    <int>          <int>    <dbl> <dttm>             
 1      517            515      830            819      227 2013-01-01 05:00:00
 2      533            529      850            830      227 2013-01-01 05:00:00
 3      542            540      923            850      160 2013-01-01 05:00:00
 4      544            545     1004           1022      183 2013-01-01 05:00:00
 5      554            600      812            837      116 2013-01-01 06:00:00
 6      554            558      740            728      150 2013-01-01 05:00:00
 7      555            600      913            854      158 2013-01-01 06:00:00
 8      557            600      709            723       53 2013-01-01 06:00:00
 9      557            600      838            846      140 2013-01-01 06:00:00
10      558            600      753            745      138 2013-01-01 06:00:00
# ℹ 336,766 more rows

The code suprisingly worked, I was expecting the function to be case sensitive, but seems contains() function was not case-sensitive by default. To change default, set the “ignore.case” argument to FALSE

Question 6: Rename air_time to air_time_min to indicate units of measurement and move it to the beginning of the data frame.

flights_df |> 
  rename(air_time_min = air_time) |> 
  relocate(air_time_min)

# A tibble: 336,776 × 19
   air_time_min  year month   day dep_time sched_dep_time dep_delay arr_time
          <dbl> <int> <int> <int>    <int>          <int>     <dbl>    <int>
 1          227  2013     1     1      517            515         2      830
 2          227  2013     1     1      533            529         4      850
 3          160  2013     1     1      542            540         2      923
 4          183  2013     1     1      544            545        -1     1004
 5          116  2013     1     1      554            600        -6      812
 6          150  2013     1     1      554            558        -4      740
 7          158  2013     1     1      555            600        -5      913
 8           53  2013     1     1      557            600        -3      709
 9          140  2013     1     1      557            600        -3      838
10          138  2013     1     1      558            600        -2      753
# ℹ 336,766 more rows
# ℹ 11 more variables: sched_arr_time <int>, arr_delay <dbl>, carrier <chr>,
#   flight <int>, tailnum <chr>, origin <chr>, dest <chr>, distance <dbl>,
#   hour <dbl>, minute <dbl>, time_hour <dttm>
…
